{
      "image_0": {
            "path": "demo_img.jpg",
            "name": "demo_img",
            "boxes": {
                  "box_1": {
                        "value": "N",
                        "coords": [
                              [241, 72],
                              [251, 72],
                              [251, 85],
                              [241, 85]
                        ]
                  },
                  "box_2": {
                        "value": "o",
                        "coords": [
                              [253, 75],
                              [261, 75],
                              [261, 85],
                              [253, 85]
                        ]
                  }
            }
      }
}