{
  "image_0": {
    "path": "demo_img_output_0.png",
    "name": "demo_img",
    "boxes": {
      "box_0": {
        "value": "N",
        "coords": [
          [
            271,
            82
          ],
          [
            279,
            82
          ],
          [
            280,
            94
          ],
          [
            271,
            95
          ]
        ]
      },
      "box_1": {
        "value": "o",
        "coords": [
          [
            281,
            85
          ],
          [
            288,
            84
          ],
          [
            288,
            94
          ],
          [
            281,
            94
          ]
        ]
      }
    }
  }
}